<?xml version="1.0" encoding="windows-1252"?>
<!-- Generator: Adobe Illustrator 16.0.0, SVG Export Plug-In . SVG Version: 6.00 Build 0)  -->
<svg height="24" width="24" viewBox="0 0 24 24" xmlns="http://www.w3.org/2000/svg"><path d="M11.5 0C5.149 0 0 5.148 0 11.5 0 17.851 5.149 23 11.5 23S23 17.851 23 11.5C23 5.148 17.851 0 11.5 0zm0 22C5.71 22 1 17.29 1 11.5S5.71 1 11.5 1 22 5.71 22 11.5 17.29 22 11.5 22zm.499-6.842V5h-1v10.149l-3.418-3.975-.758.652 4.678 5.44 4.694-5.439-.757-.653-3.439 3.984z" fill="#181818"></path></svg>
