<?xml version="1.0" encoding="UTF-8" standalone="no"?>
<svg
   xmlns:osb="http://www.openswatchbook.org/uri/2009/osb"
   xmlns:dc="http://purl.org/dc/elements/1.1/"
   xmlns:cc="http://creativecommons.org/ns#"
   xmlns:rdf="http://www.w3.org/1999/02/22-rdf-syntax-ns#"
   xmlns:svg="http://www.w3.org/2000/svg"
   xmlns="http://www.w3.org/2000/svg"
   xmlns:sodipodi="http://sodipodi.sourceforge.net/DTD/sodipodi-0.dtd"
   xmlns:inkscape="http://www.inkscape.org/namespaces/inkscape"
   width="210mm"
   height="297mm"
   viewBox="0 0 210 297"
   version="1.1"
   id="svg4597"
   inkscape:version="1.0beta1 (32d4812, 2019-09-19)"
   sodipodi:docname="pfd.svg"
   inkscape:export-filename="/Users/gdyer/fd.ico.png"
   inkscape:export-xdpi="11.611428"
   inkscape:export-ydpi="11.611428">
  <defs
     id="defs4591">
    <linearGradient
       id="linearGradient6805"
       osb:paint="solid">
      <stop
         style="stop-color:#0000ff;stop-opacity:1;"
         offset="0"
         id="stop6803" />
    </linearGradient>
    <linearGradient
       id="linearGradient6657"
       osb:paint="solid">
      <stop
         style="stop-color:#000000;stop-opacity:1;"
         offset="0"
         id="stop6655" />
    </linearGradient>
  </defs>
  <sodipodi:namedview
     id="base"
     pagecolor="#ffffff"
     bordercolor="#666666"
     borderopacity="1.0"
     inkscape:pageopacity="0.0"
     inkscape:pageshadow="2"
     inkscape:zoom="0.35"
     inkscape:cx="400"
     inkscape:cy="560"
     inkscape:document-units="mm"
     inkscape:current-layer="layer1"
     showgrid="false"
     inkscape:window-width="1208"
     inkscape:window-height="838"
     inkscape:window-x="240"
     inkscape:window-y="39"
     inkscape:window-maximized="0"
     inkscape:document-rotation="0" />
  <metadata
     id="metadata4594">
    <rdf:RDF>
      <cc:Work
         rdf:about="">
        <dc:format>image/svg+xml</dc:format>
        <dc:type
           rdf:resource="http://purl.org/dc/dcmitype/StillImage" />
        <dc:title />
      </cc:Work>
    </rdf:RDF>
  </metadata>
  <g
     inkscape:label="Calque 1"
     inkscape:groupmode="layer"
     id="layer1">
    <rect
       style="fill:none;stroke-width:1.03867"
       id="rect843"
       width="210"
       height="210"
       x="0"
       y="0" />
    <path
       sodipodi:type="star"
       style="fill:#68b7d8;fill-opacity:1;stroke-width:0.264583"
       id="path4603"
       sodipodi:sides="29"
       sodipodi:cx="85.422623"
       sodipodi:cy="98.184517"
       sodipodi:r1="27.066896"
       sodipodi:r2="27.041134"
       sodipodi:arg1="0.94405343"
       sodipodi:arg2="1.0523842"
       inkscape:flatsided="true"
       inkscape:rounded="0.5"
       inkscape:randomized="0.029"
       d="m 101.88155,120.83401 c -2.347669,1.78861 -3.628442,1.32658 -6.273927,2.52854 -2.645485,1.20197 -1.804944,1.22651 -4.711668,1.77213 -2.906723,0.54561 -2.57546,0.45146 -5.501419,0.33288 -2.92596,-0.11859 -3.256706,0.005 -6.124603,-0.6747 -2.867898,-0.67999 -2.979116,-1.14658 -5.636441,-2.3645 -2.657325,-1.21791 -3.357437,-1.48787 -5.596761,-3.31476 -2.239323,-1.8269 -2.179123,-2.14045 -4.009204,-4.39118 -1.830081,-2.25072 -1.689414,-2.53572 -2.961085,-5.19371 -1.271672,-2.65799 -0.984531,-2.09727 -1.685785,-4.97929 -0.701254,-2.88202 -0.419936,-3.38141 -0.512551,-6.280684 -0.09261,-2.899274 -0.120229,-2.479808 0.347306,-5.39645 0.467535,-2.916642 -0.304538,-3.077244 0.768351,-5.825298 1.072888,-2.748055 1.293264,-1.992712 2.942313,-4.416251 1.649049,-2.423539 1.88469,-2.50067 4.125292,-4.438585 2.240602,-1.937916 1.932708,-2.013271 4.498575,-3.425803 2.565867,-1.412532 2.772737,-1.406308 5.541499,-2.269817 2.768762,-0.863508 2.364803,-1.646025 5.284044,-1.829095 2.919241,-0.183069 4.339459,-0.394364 7.214899,-0.06444 2.875441,0.329925 2.129284,1.606981 4.926793,2.508377 2.797509,0.901395 2.934716,0.229696 5.454262,1.743738 2.51955,1.514042 1.66071,1.533709 3.79158,3.517539 2.13087,1.98383 3.06158,3.195585 4.546,5.681224 1.48442,2.48564 1.34824,1.568594 2.29461,4.362571 0.94637,2.793977 1.95204,3.913374 2.2939,6.783192 0.34185,2.869818 -0.6411,1.403785 -0.89817,4.327511 -0.25707,2.923729 0.49677,3.772729 -0.43542,6.583779 -0.93219,2.81104 -0.50955,2.35915 -1.87289,4.94997 -1.36335,2.59082 -1.33941,3.39459 -3.31702,5.54544 -1.97761,2.15086 -2.14482,2.43906 -4.49248,4.22767 z"
       inkscape:transform-center-x="-2.3748406"
       inkscape:transform-center-y="-8.6937417"
       transform="matrix(3.3738219,0,0,3.3157621,-181.92008,-219.65362)"
       inkscape:export-filename="/Users/gdyer/Desktop/foreword/homepage/static/img/fd.png"
       inkscape:export-xdpi="66.698204"
       inkscape:export-ydpi="66.698204" />
    <rect
       y="0"
       x="0"
       height="210"
       width="210"
       id="rect844"
       style="fill:none;stroke-width:1" />
    <rect
       y="25.891167"
       x="34.013882"
       height="189.86855"
       width="151.28563"
       id="rect846"
       style="fill:none;stroke-width:1" />
  </g>
</svg>
